<?xml version="1.0" encoding="UTF-8"?>
<testsuite xmlns:xsi="http://www.w3.org/2001/XMLSchema-instance" xsi:schemaLocation="https://maven.apache.org/surefire/maven-surefire-plugin/xsd/surefire-test-report.xsd" name="BlackJackTest" time="0.234" tests="122" errors="0" skipped="0" failures="0">
  <properties>
    <property name="java.runtime.name" value="Java(TM) SE Runtime Environment"/>
    <property name="sun.boot.library.path" value="/Library/Java/JavaVirtualMachines/jdk1.8.0_152.jdk/Contents/Home/jre/lib"/>
    <property name="java.vm.version" value="25.152-b16"/>
    <property name="gopherProxySet" value="false"/>
    <property name="java.vm.vendor" value="Oracle Corporation"/>
    <property name="maven.multiModuleProjectDirectory" value="/Users/henningmalquist/eclipse-workspace/BlackJack"/>
    <property name="java.vendor.url" value="http://java.oracle.com/"/>
    <property name="path.separator" value=":"/>
    <property name="guice.disable.misplaced.annotation.check" value="true"/>
    <property name="java.vm.name" value="Java HotSpot(TM) 64-Bit Server VM"/>
    <property name="file.encoding.pkg" value="sun.io"/>
    <property name="user.country" value="SE"/>
    <property name="sun.java.launcher" value="SUN_STANDARD"/>
    <property name="sun.os.patch.level" value="unknown"/>
    <property name="java.vm.specification.name" value="Java Virtual Machine Specification"/>
    <property name="user.dir" value="/Users/henningmalquist/eclipse-workspace/BlackJack"/>
    <property name="java.runtime.version" value="1.8.0_152-b16"/>
    <property name="java.awt.graphicsenv" value="sun.awt.CGraphicsEnvironment"/>
    <property name="java.endorsed.dirs" value="/Library/Java/JavaVirtualMachines/jdk1.8.0_152.jdk/Contents/Home/jre/lib/endorsed"/>
    <property name="os.arch" value="x86_64"/>
    <property name="java.io.tmpdir" value="/var/folders/2v/h_ds06n10_xcdrnt8msy5jc00000gn/T/"/>
    <property name="line.separator" value="&#10;"/>
    <property name="java.vm.specification.vendor" value="Oracle Corporation"/>
    <property name="os.name" value="Mac OS X"/>
    <property name="classworlds.conf" value="/Users/henningmalquist/apache-maven-3.5.2/bin/m2.conf"/>
    <property name="sun.jnu.encoding" value="UTF-8"/>
    <property name="java.library.path" value="/Users/henningmalquist/Library/Java/Extensions:/Library/Java/Extensions:/Network/Library/Java/Extensions:/System/Library/Java/Extensions:/usr/lib/java:."/>
    <property name="maven.conf" value="/Users/henningmalquist/apache-maven-3.5.2/conf"/>
    <property name="java.specification.name" value="Java Platform API Specification"/>
    <property name="java.class.version" value="52.0"/>
    <property name="sun.management.compiler" value="HotSpot 64-Bit Tiered Compilers"/>
    <property name="os.version" value="10.13.1"/>
    <property name="library.jansi.path" value="/Users/henningmalquist/apache-maven-3.5.2/lib/jansi-native"/>
    <property name="http.nonProxyHosts" value="local|*.local|169.254/16|*.169.254/16"/>
    <property name="user.home" value="/Users/henningmalquist"/>
    <property name="user.timezone" value="Europe/Stockholm"/>
    <property name="java.awt.printerjob" value="sun.lwawt.macosx.CPrinterJob"/>
    <property name="java.specification.version" value="1.8"/>
    <property name="file.encoding" value="UTF-8"/>
    <property name="user.name" value="henningmalquist"/>
    <property name="java.class.path" value="/Users/henningmalquist/apache-maven-3.5.2/boot/plexus-classworlds-2.5.2.jar"/>
    <property name="java.vm.specification.version" value="1.8"/>
    <property name="sun.arch.data.model" value="64"/>
    <property name="java.home" value="/Library/Java/JavaVirtualMachines/jdk1.8.0_152.jdk/Contents/Home/jre"/>
    <property name="sun.java.command" value="org.codehaus.plexus.classworlds.launcher.Launcher test"/>
    <property name="java.specification.vendor" value="Oracle Corporation"/>
    <property name="user.language" value="sv"/>
    <property name="awt.toolkit" value="sun.lwawt.macosx.LWCToolkit"/>
    <property name="java.vm.info" value="mixed mode"/>
    <property name="java.version" value="1.8.0_152"/>
    <property name="java.ext.dirs" value="/Users/henningmalquist/Library/Java/Extensions:/Library/Java/JavaVirtualMachines/jdk1.8.0_152.jdk/Contents/Home/jre/lib/ext:/Library/Java/Extensions:/Network/Library/Java/Extensions:/System/Library/Java/Extensions:/usr/lib/java"/>
    <property name="sun.boot.class.path" value="/Library/Java/JavaVirtualMachines/jdk1.8.0_152.jdk/Contents/Home/jre/lib/resources.jar:/Library/Java/JavaVirtualMachines/jdk1.8.0_152.jdk/Contents/Home/jre/lib/rt.jar:/Library/Java/JavaVirtualMachines/jdk1.8.0_152.jdk/Contents/Home/jre/lib/sunrsasign.jar:/Library/Java/JavaVirtualMachines/jdk1.8.0_152.jdk/Contents/Home/jre/lib/jsse.jar:/Library/Java/JavaVirtualMachines/jdk1.8.0_152.jdk/Contents/Home/jre/lib/jce.jar:/Library/Java/JavaVirtualMachines/jdk1.8.0_152.jdk/Contents/Home/jre/lib/charsets.jar:/Library/Java/JavaVirtualMachines/jdk1.8.0_152.jdk/Contents/Home/jre/lib/jfr.jar:/Library/Java/JavaVirtualMachines/jdk1.8.0_152.jdk/Contents/Home/jre/classes"/>
    <property name="java.vendor" value="Oracle Corporation"/>
    <property name="maven.home" value="/Users/henningmalquist/apache-maven-3.5.2"/>
    <property name="file.separator" value="/"/>
    <property name="java.vendor.url.bug" value="http://bugreport.sun.com/bugreport/"/>
    <property name="sun.cpu.endian" value="little"/>
    <property name="sun.io.unicode.encoding" value="UnicodeBig"/>
    <property name="socksNonProxyHosts" value="local|*.local|169.254/16|*.169.254/16"/>
    <property name="ftp.nonProxyHosts" value="local|*.local|169.254/16|*.169.254/16"/>
    <property name="sun.cpu.isalist" value=""/>
  </properties>
  <testcase name="testScore" classname="BlackJackTest" time="0.017"/>
  <testcase name="testAces" classname="BlackJackTest" time="0"/>
  <testcase name="test53Cards" classname="BlackJackTest" time="0.001"/>
  <testcase name="testNoDuplicateCardsWithoutShuffle" classname="BlackJackTest" time="0.004"/>
  <testcase name="testRankSuits" classname="testRankSuits(Rank)" time="0.014"/>
  <testcase name="testRankSuits" classname="testRankSuits(Rank)" time="0.001"/>
  <testcase name="testRankSuits" classname="testRankSuits(Rank)" time="0"/>
  <testcase name="testRankSuits" classname="testRankSuits(Rank)" time="0.001"/>
  <testcase name="testRankSuits" classname="testRankSuits(Rank)" time="0"/>
  <testcase name="testRankSuits" classname="testRankSuits(Rank)" time="0.001"/>
  <testcase name="testRankSuits" classname="testRankSuits(Rank)" time="0"/>
  <testcase name="testRankSuits" classname="testRankSuits(Rank)" time="0.001"/>
  <testcase name="testRankSuits" classname="testRankSuits(Rank)" time="0"/>
  <testcase name="testRankSuits" classname="testRankSuits(Rank)" time="0.001"/>
  <testcase name="testRankSuits" classname="testRankSuits(Rank)" time="0"/>
  <testcase name="testRankSuits" classname="testRankSuits(Rank)" time="0.001"/>
  <testcase name="testRankSuits" classname="testRankSuits(Rank)" time="0"/>
  <testcase name="testNoDuplicateCardsWithShuffle" classname="BlackJackTest" time="0.003"/>
  <testcase name="testDeck52CardsBeforAndAfterShuffle" classname="BlackJackTest" time="0.002"/>
  <testcase name="testAllRanksAndSuits" classname="BlackJackTest" time="0"/>
  <testcase name="testEquals" classname="BlackJackTest" time="0.001"/>
  <testcase name="testNotEquals" classname="BlackJackTest" time="0"/>
  <testcase name="testDrawAndDeckSizeBeforeAndAfterShuffle" classname="testDrawAndDeckSizeBeforeAndAfterShuffle()" time="0.001"/>
  <testcase name="testDrawAndDeckSizeBeforeAndAfterShuffle" classname="testDrawAndDeckSizeBeforeAndAfterShuffle()" time="0"/>
  <testcase name="testDrawAndDeckSizeBeforeAndAfterShuffle" classname="testDrawAndDeckSizeBeforeAndAfterShuffle()" time="0"/>
  <testcase name="testDrawAndDeckSizeBeforeAndAfterShuffle" classname="testDrawAndDeckSizeBeforeAndAfterShuffle()" time="0.002"/>
  <testcase name="testDrawAndDeckSizeBeforeAndAfterShuffle" classname="testDrawAndDeckSizeBeforeAndAfterShuffle()" time="0.001"/>
  <testcase name="testDrawAndDeckSizeBeforeAndAfterShuffle" classname="testDrawAndDeckSizeBeforeAndAfterShuffle()" time="0.001"/>
  <testcase name="testDrawAndDeckSizeBeforeAndAfterShuffle" classname="testDrawAndDeckSizeBeforeAndAfterShuffle()" time="0.001"/>
  <testcase name="testDrawAndDeckSizeBeforeAndAfterShuffle" classname="testDrawAndDeckSizeBeforeAndAfterShuffle()" time="0.001"/>
  <testcase name="testDrawAndDeckSizeBeforeAndAfterShuffle" classname="testDrawAndDeckSizeBeforeAndAfterShuffle()" time="0.001"/>
  <testcase name="testDrawAndDeckSizeBeforeAndAfterShuffle" classname="testDrawAndDeckSizeBeforeAndAfterShuffle()" time="0"/>
  <testcase name="testDrawAndDeckSizeBeforeAndAfterShuffle" classname="testDrawAndDeckSizeBeforeAndAfterShuffle()" time="0"/>
  <testcase name="testDrawAndDeckSizeBeforeAndAfterShuffle" classname="testDrawAndDeckSizeBeforeAndAfterShuffle()" time="0"/>
  <testcase name="testDrawAndDeckSizeBeforeAndAfterShuffle" classname="testDrawAndDeckSizeBeforeAndAfterShuffle()" time="0"/>
  <testcase name="testDrawAndDeckSizeBeforeAndAfterShuffle" classname="testDrawAndDeckSizeBeforeAndAfterShuffle()" time="0.009"/>
  <testcase name="testDrawAndDeckSizeBeforeAndAfterShuffle" classname="testDrawAndDeckSizeBeforeAndAfterShuffle()" time="0"/>
  <testcase name="testDrawAndDeckSizeBeforeAndAfterShuffle" classname="testDrawAndDeckSizeBeforeAndAfterShuffle()" time="0"/>
  <testcase name="testDrawAndDeckSizeBeforeAndAfterShuffle" classname="testDrawAndDeckSizeBeforeAndAfterShuffle()" time="0"/>
  <testcase name="testDrawAndDeckSizeBeforeAndAfterShuffle" classname="testDrawAndDeckSizeBeforeAndAfterShuffle()" time="0"/>
  <testcase name="testDrawAndDeckSizeBeforeAndAfterShuffle" classname="testDrawAndDeckSizeBeforeAndAfterShuffle()" time="0"/>
  <testcase name="testDrawAndDeckSizeBeforeAndAfterShuffle" classname="testDrawAndDeckSizeBeforeAndAfterShuffle()" time="0"/>
  <testcase name="testDrawAndDeckSizeBeforeAndAfterShuffle" classname="testDrawAndDeckSizeBeforeAndAfterShuffle()" time="0"/>
  <testcase name="testDrawAndDeckSizeBeforeAndAfterShuffle" classname="testDrawAndDeckSizeBeforeAndAfterShuffle()" time="0"/>
  <testcase name="testDrawAndDeckSizeBeforeAndAfterShuffle" classname="testDrawAndDeckSizeBeforeAndAfterShuffle()" time="0"/>
  <testcase name="testDrawAndDeckSizeBeforeAndAfterShuffle" classname="testDrawAndDeckSizeBeforeAndAfterShuffle()" time="0"/>
  <testcase name="testDrawAndDeckSizeBeforeAndAfterShuffle" classname="testDrawAndDeckSizeBeforeAndAfterShuffle()" time="0"/>
  <testcase name="testDrawAndDeckSizeBeforeAndAfterShuffle" classname="testDrawAndDeckSizeBeforeAndAfterShuffle()" time="0"/>
  <testcase name="testDrawAndDeckSizeBeforeAndAfterShuffle" classname="testDrawAndDeckSizeBeforeAndAfterShuffle()" time="0"/>
  <testcase name="testDrawAndDeckSizeBeforeAndAfterShuffle" classname="testDrawAndDeckSizeBeforeAndAfterShuffle()" time="0"/>
  <testcase name="testDrawAndDeckSizeBeforeAndAfterShuffle" classname="testDrawAndDeckSizeBeforeAndAfterShuffle()" time="0"/>
  <testcase name="testDrawAndDeckSizeBeforeAndAfterShuffle" classname="testDrawAndDeckSizeBeforeAndAfterShuffle()" time="0"/>
  <testcase name="testDrawAndDeckSizeBeforeAndAfterShuffle" classname="testDrawAndDeckSizeBeforeAndAfterShuffle()" time="0"/>
  <testcase name="testDrawAndDeckSizeBeforeAndAfterShuffle" classname="testDrawAndDeckSizeBeforeAndAfterShuffle()" time="0"/>
  <testcase name="testDrawAndDeckSizeBeforeAndAfterShuffle" classname="testDrawAndDeckSizeBeforeAndAfterShuffle()" time="0"/>
  <testcase name="testDrawAndDeckSizeBeforeAndAfterShuffle" classname="testDrawAndDeckSizeBeforeAndAfterShuffle()" time="0"/>
  <testcase name="testDrawAndDeckSizeBeforeAndAfterShuffle" classname="testDrawAndDeckSizeBeforeAndAfterShuffle()" time="0"/>
  <testcase name="testDrawAndDeckSizeBeforeAndAfterShuffle" classname="testDrawAndDeckSizeBeforeAndAfterShuffle()" time="0"/>
  <testcase name="testDrawAndDeckSizeBeforeAndAfterShuffle" classname="testDrawAndDeckSizeBeforeAndAfterShuffle()" time="0"/>
  <testcase name="testDrawAndDeckSizeBeforeAndAfterShuffle" classname="testDrawAndDeckSizeBeforeAndAfterShuffle()" time="0"/>
  <testcase name="testDrawAndDeckSizeBeforeAndAfterShuffle" classname="testDrawAndDeckSizeBeforeAndAfterShuffle()" time="0"/>
  <testcase name="testDrawAndDeckSizeBeforeAndAfterShuffle" classname="testDrawAndDeckSizeBeforeAndAfterShuffle()" time="0"/>
  <testcase name="testDrawAndDeckSizeBeforeAndAfterShuffle" classname="testDrawAndDeckSizeBeforeAndAfterShuffle()" time="0.001"/>
  <testcase name="testDrawAndDeckSizeBeforeAndAfterShuffle" classname="testDrawAndDeckSizeBeforeAndAfterShuffle()" time="0"/>
  <testcase name="testDrawAndDeckSizeBeforeAndAfterShuffle" classname="testDrawAndDeckSizeBeforeAndAfterShuffle()" time="0"/>
  <testcase name="testDrawAndDeckSizeBeforeAndAfterShuffle" classname="testDrawAndDeckSizeBeforeAndAfterShuffle()" time="0.001"/>
  <testcase name="testDrawAndDeckSizeBeforeAndAfterShuffle" classname="testDrawAndDeckSizeBeforeAndAfterShuffle()" time="0"/>
  <testcase name="testDrawAndDeckSizeBeforeAndAfterShuffle" classname="testDrawAndDeckSizeBeforeAndAfterShuffle()" time="0"/>
  <testcase name="testDrawAndDeckSizeBeforeAndAfterShuffle" classname="testDrawAndDeckSizeBeforeAndAfterShuffle()" time="0"/>
  <testcase name="testDrawAndDeckSizeBeforeAndAfterShuffle" classname="testDrawAndDeckSizeBeforeAndAfterShuffle()" time="0.001"/>
  <testcase name="testDrawAndDeckSizeBeforeAndAfterShuffle" classname="testDrawAndDeckSizeBeforeAndAfterShuffle()" time="0"/>
  <testcase name="testDrawAndDeckSizeBeforeAndAfterShuffle" classname="testDrawAndDeckSizeBeforeAndAfterShuffle()" time="0"/>
  <testcase name="testDrawAndDeckSizeBeforeAndAfterShuffle" classname="testDrawAndDeckSizeBeforeAndAfterShuffle()" time="0"/>
  <testcase name="testDrawAndDeckSizeBeforeAndAfterShuffle" classname="testDrawAndDeckSizeBeforeAndAfterShuffle()" time="0"/>
  <testcase name="testDrawAndDeckSizeBeforeAndAfterShuffle" classname="testDrawAndDeckSizeBeforeAndAfterShuffle()" time="0.001"/>
  <testcase name="testDrawAndDeckSizeBeforeAndAfterShuffle" classname="testDrawAndDeckSizeBeforeAndAfterShuffle()" time="0"/>
  <testcase name="testDrawAndDeckSizeBeforeAndAfterShuffle" classname="testDrawAndDeckSizeBeforeAndAfterShuffle()" time="0"/>
  <testcase name="testDrawAndDeckSizeBeforeAndAfterShuffle" classname="testDrawAndDeckSizeBeforeAndAfterShuffle()" time="0"/>
  <testcase name="testDrawAndDeckSizeBeforeAndAfterShuffle" classname="testDrawAndDeckSizeBeforeAndAfterShuffle()" time="0"/>
  <testcase name="testDrawAndDeckSizeBeforeAndAfterShuffle" classname="testDrawAndDeckSizeBeforeAndAfterShuffle()" time="0"/>
  <testcase name="testDrawAndDeckSizeBeforeAndAfterShuffle" classname="testDrawAndDeckSizeBeforeAndAfterShuffle()" time="0"/>
  <testcase name="testDrawAndDeckSizeBeforeAndAfterShuffle" classname="testDrawAndDeckSizeBeforeAndAfterShuffle()" time="0"/>
  <testcase name="testDrawAndDeckSizeBeforeAndAfterShuffle" classname="testDrawAndDeckSizeBeforeAndAfterShuffle()" time="0"/>
  <testcase name="testDrawAndDeckSizeBeforeAndAfterShuffle" classname="testDrawAndDeckSizeBeforeAndAfterShuffle()" time="0"/>
  <testcase name="testDrawAndDeckSizeBeforeAndAfterShuffle" classname="testDrawAndDeckSizeBeforeAndAfterShuffle()" time="0"/>
  <testcase name="testDrawAndDeckSizeBeforeAndAfterShuffle" classname="testDrawAndDeckSizeBeforeAndAfterShuffle()" time="0"/>
  <testcase name="testDrawAndDeckSizeBeforeAndAfterShuffle" classname="testDrawAndDeckSizeBeforeAndAfterShuffle()" time="0"/>
  <testcase name="testDrawAndDeckSizeBeforeAndAfterShuffle" classname="testDrawAndDeckSizeBeforeAndAfterShuffle()" time="0.001"/>
  <testcase name="testDrawAndDeckSizeBeforeAndAfterShuffle" classname="testDrawAndDeckSizeBeforeAndAfterShuffle()" time="0"/>
  <testcase name="testDrawAndDeckSizeBeforeAndAfterShuffle" classname="testDrawAndDeckSizeBeforeAndAfterShuffle()" time="0"/>
  <testcase name="testDrawAndDeckSizeBeforeAndAfterShuffle" classname="testDrawAndDeckSizeBeforeAndAfterShuffle()" time="0"/>
  <testcase name="testDrawAndDeckSizeBeforeAndAfterShuffle" classname="testDrawAndDeckSizeBeforeAndAfterShuffle()" time="0"/>
  <testcase name="testDrawAndDeckSizeBeforeAndAfterShuffle" classname="testDrawAndDeckSizeBeforeAndAfterShuffle()" time="0"/>
  <testcase name="testDrawAndDeckSizeBeforeAndAfterShuffle" classname="testDrawAndDeckSizeBeforeAndAfterShuffle()" time="0"/>
  <testcase name="testDrawAndDeckSizeBeforeAndAfterShuffle" classname="testDrawAndDeckSizeBeforeAndAfterShuffle()" time="0"/>
  <testcase name="testDrawAndDeckSizeBeforeAndAfterShuffle" classname="testDrawAndDeckSizeBeforeAndAfterShuffle()" time="0.001"/>
  <testcase name="testDrawAndDeckSizeBeforeAndAfterShuffle" classname="testDrawAndDeckSizeBeforeAndAfterShuffle()" time="0.002"/>
  <testcase name="testDrawAndDeckSizeBeforeAndAfterShuffle" classname="testDrawAndDeckSizeBeforeAndAfterShuffle()" time="0.001"/>
  <testcase name="testDrawAndDeckSizeBeforeAndAfterShuffle" classname="testDrawAndDeckSizeBeforeAndAfterShuffle()" time="0"/>
  <testcase name="testDrawAndDeckSizeBeforeAndAfterShuffle" classname="testDrawAndDeckSizeBeforeAndAfterShuffle()" time="0.001"/>
  <testcase name="testDrawAndDeckSizeBeforeAndAfterShuffle" classname="testDrawAndDeckSizeBeforeAndAfterShuffle()" time="0"/>
  <testcase name="testDrawAndDeckSizeBeforeAndAfterShuffle" classname="testDrawAndDeckSizeBeforeAndAfterShuffle()" time="0"/>
  <testcase name="testDrawAndDeckSizeBeforeAndAfterShuffle" classname="testDrawAndDeckSizeBeforeAndAfterShuffle()" time="0.001"/>
  <testcase name="testDrawAndDeckSizeBeforeAndAfterShuffle" classname="testDrawAndDeckSizeBeforeAndAfterShuffle()" time="0"/>
  <testcase name="testDrawAndDeckSizeBeforeAndAfterShuffle" classname="testDrawAndDeckSizeBeforeAndAfterShuffle()" time="0"/>
  <testcase name="testDrawAndDeckSizeBeforeAndAfterShuffle" classname="testDrawAndDeckSizeBeforeAndAfterShuffle()" time="0"/>
  <testcase name="testDrawAndDeckSizeBeforeAndAfterShuffle" classname="testDrawAndDeckSizeBeforeAndAfterShuffle()" time="0.001"/>
  <testcase name="testDrawAndDeckSizeBeforeAndAfterShuffle" classname="testDrawAndDeckSizeBeforeAndAfterShuffle()" time="0"/>
  <testcase name="testDrawAndDeckSizeBeforeAndAfterShuffle" classname="testDrawAndDeckSizeBeforeAndAfterShuffle()" time="0"/>
  <testcase name="testDrawAndDeckSizeBeforeAndAfterShuffle" classname="testDrawAndDeckSizeBeforeAndAfterShuffle()" time="0.001"/>
  <testcase name="testDrawAndDeckSizeBeforeAndAfterShuffle" classname="testDrawAndDeckSizeBeforeAndAfterShuffle()" time="0.001"/>
  <testcase name="testDrawAndDeckSizeBeforeAndAfterShuffle" classname="testDrawAndDeckSizeBeforeAndAfterShuffle()" time="0"/>
  <testcase name="testDrawAndDeckSizeBeforeAndAfterShuffle" classname="testDrawAndDeckSizeBeforeAndAfterShuffle()" time="0"/>
  <testcase name="testDrawAndDeckSizeBeforeAndAfterShuffle" classname="testDrawAndDeckSizeBeforeAndAfterShuffle()" time="0"/>
  <testcase name="testDrawAndDeckSizeBeforeAndAfterShuffle" classname="testDrawAndDeckSizeBeforeAndAfterShuffle()" time="0"/>
  <testcase name="testDrawAndDeckSizeBeforeAndAfterShuffle" classname="testDrawAndDeckSizeBeforeAndAfterShuffle()" time="0"/>
  <testcase name="testDrawAndDeckSizeBeforeAndAfterShuffle" classname="testDrawAndDeckSizeBeforeAndAfterShuffle()" time="0"/>
  <testcase name="testDrawAndDeckSizeBeforeAndAfterShuffle" classname="testDrawAndDeckSizeBeforeAndAfterShuffle()" time="0"/>
  <testcase name="testDrawAndDeckSizeBeforeAndAfterShuffle" classname="testDrawAndDeckSizeBeforeAndAfterShuffle()" time="0"/>
  <testcase name="testDrawAndDeckSizeBeforeAndAfterShuffle" classname="testDrawAndDeckSizeBeforeAndAfterShuffle()" time="0"/>
  <testcase name="testDrawAndDeckSizeBeforeAndAfterShuffle" classname="testDrawAndDeckSizeBeforeAndAfterShuffle()" time="0.001"/>
  <testcase name="testDrawAndDeckSizeBeforeAndAfterShuffle" classname="testDrawAndDeckSizeBeforeAndAfterShuffle()" time="0"/>
</testsuite>